0.3746336738240271,0.010648592548629963,0.18783621770552605,-0.01926737833590197,0.0847369561238918
0.010648592548629965,0.6142602347633171,-0.48645666171265384,0.3871822683181343,0.20670516804639907
0.18783621770552608,-0.48645666171265384,1.4432560530501768,-0.5440697032556495,0.08710489647237506
-0.01926737833590197,0.3871822683181343,-0.5440697032556494,0.8619672903064725,0.33188813331906414
0.08473695612389182,0.2067051680463991,0.08710489647237508,0.33188813331906414,0.7440632618840192
