0,1,2,3,4
1.0,0.022197936436553975,0.25544901666534325,-0.03390578680287713,0.16049611451998802
0.022197936436553975,1.0,-0.516649794101211,0.5321007441594199,0.30575263141212966
0.25544901666534325,-0.516649794101211,1.0,-0.4877951254459199,0.08405546290454242
-0.03390578680287713,0.5321007441594199,-0.4877951254459199,1.0,0.4144206625785233
0.16049611451998802,0.30575263141212966,0.08405546290454242,0.4144206625785233,1.0
