1.0,0.022197936436554145,0.2554490166653432,-0.03390578680287701,0.16049611451998805
0.022197936436554145,0.9999999999999998,-0.516649794101211,0.5321007441594203,0.3057526314121298
0.2554490166653432,-0.516649794101211,0.9999999999999999,-0.48779512544591963,0.08405546290454315
-0.03390578680287701,0.5321007441594203,-0.48779512544591963,0.9999999999999998,0.4144206625785228
0.16049611451998805,0.3057526314121298,0.08405546290454315,0.4144206625785228,0.9999999999999999
