0,1,2,3,4
1.0,0.10439807790067138,0.07753986220865436,-0.005155290434581555,0.3375522917873913
0.10439807790067138,1.0,-0.5225538779605229,0.5446677340406174,0.45878527248504397
0.07753986220865436,-0.5225538779605229,1.0,-0.5202602780952819,0.07818266670660387
-0.005155290434581555,0.5446677340406174,-0.5202602780952819,1.0,0.8086439493159884
0.3375522917873913,0.45878527248504397,0.07818266670660387,0.8086439493159884,1.0
